2. Numeric vectors - Deep R Programming
…
To understand the “pseudo” part of the said randomness better,
in Section 8.3, we will build a very simple random generator
ourselves.

2.1.6. Reading data with scan#

An example text file named
euraud-20200101-20200630.csv
gives the EUR to AUD exchange rates
(how many Australian Dollars can we buy for 1 Euro)
from 1 January to 30 June 2020 (remember COVID-19?). Let us preview
the first couple of lines:

# EUR/AUD Exchange Rates
# Source: Statistical Data Warehouse of the European Central Bank System
# https://www.ecb.europa.eu/stats/policy_and_exchange_rates/
# (provided free of charge)
NA
1.6006
1.6031
NA

The four header lines that begin with “#” merely serve as
comments for us humans. They should be ignored by the interpreter.
The first “real” value, NA, corresponds to 1 January
(Wednesday, New Year’s Day; Forex markets were closed,
hence a missing observation).

We can invoke the scan function to read all the inputs
and convert them to a single numeric vector:

scan(paste0("https://github.com/gagolews/teaching-data/raw/",
    "master/marek/euraud-20200101-20200630.csv"), comment.char="#")
##  [1]     NA 1.6006 1.6031     NA     NA 1.6119 1.6251 1.6195 1.6193 1.6132
## [11]     NA     NA 1.6117 1.6110 1.6188 1.6115 1.6122     NA     NA 1.6154
## [21] 1.6177 1.6184 1.6149 1.6127     NA     NA 1.6291 1.6290 1.6299 1.6412
## [31] 1.6494     NA     NA 1.6521 1.6439 1.6299 1.6282 1.6417     NA     NA
## [41] 1.6373 1.6260 1.6175 1.6138 1.6151     NA     NA 1.6129 1.6195 1.6142
## [51] 1.6294 1.6363     NA     NA 1.6384 1.6442 1.6565 1.6672 1.6875     NA
## [61]     NA 1.6998 1.6911 1.6794 1.6917 1.7103     NA     NA 1.7330 1.7377
## [71] 1.7389 1.7674 1.7684     NA     NA 1.8198 1.8287 1.8568 1.8635 1.8226
## [81]     NA     NA 1.8586 1.8315 1.7993 1.8162 1.8209     NA     NA 1.8021
## [91] 1.7967 1.8053 1.7970 1.8004     NA     NA 1.7790 1.7578 1.7596
##  [ reached getOption("max.print") -- omitted 83 entries ]
…
